<?xml version="1.0"?>
<rule-set name="Prevention"
	xmlns="http://drools.org/rules"
	xmlns:java="http://drools.org/semantics/java"
	xmlns:xs="http://www.w3.org/2001/XMLSchema-instance"
          xs:schemaLocation="http://drools.org/rules rules.xsd
                             http://drools.org/semantics/java java.xsd">
	<rule name="DTaP-IPV 1">
		<parameter identifier="prev">
			<class>oscar.oscarPrevention.Prevention</class>
		</parameter>
		<java:condition>prev.getAgeInMonths() &gt;= 2</java:condition>
		<java:condition>prev.getAgeInMonths() &lt; 72</java:condition>
		<java:condition>prev.getNumberOfPreventionType("DTaP-IPV") == 0</java:condition>
		<java:condition>prev.getNumberOfPreventionType("DTaP-IPV-Hib") == 0</java:condition>
		<java:condition>prev.getNumberOfPreventionType("[DTaP-IPV-Hib] Diphtheria + Tetanus + Pertussis + Polio + Hib") == 0</java:condition>
		<java:consequence>              
              prev.log("DTaP-IPV 1");
              prev.addWarning("DTaP-IPV", "Needs 1st DTaP-IPV-HIB");
        </java:consequence>
	</rule>
	<rule name="DTaP-IPV 2">
		<parameter identifier="prev">
			<class>oscar.oscarPrevention.Prevention</class>
		</parameter>
		<java:condition>prev.getAgeInMonths() &gt;= 4</java:condition>
		<java:condition>prev.getAgeInMonths() &lt;= 72</java:condition>
		<java:condition>prev.getNumberOfPreventionType("DTaP-IPV-Hib") + prev.getNumberOfPreventionType("[DTaP-IPV-Hib] Diphtheria + Tetanus + Pertussis + Polio + Hib") == 1</java:condition>
		<java:condition>prev.getHowManyMonthsSinceLast("DTaP-IPV") &gt;= 2 || prev.getHowManyMonthsSinceLast("[DTaP-IPV-Hib] Diphtheria + Tetanus + Pertussis + Polio + Hib") &gt;= 2</java:condition>
		<java:consequence>              
              prev.log("DTaP-IPV 2");
              prev.addWarning("DTaP-IPV", "Needs 2nd DTaP-IPV-HIB");
        </java:consequence>
	</rule>
	<rule name="DTaP-IPV 2.1">
		<parameter identifier="prev">
			<class>oscar.oscarPrevention.Prevention</class>
		</parameter>
		<java:condition>prev.isPassedNextDate("DTaP-IPV-Hib") || prev.isPassedNextDate("[DTaP-IPV-Hib] Diphtheria + Tetanus + Pertussis + Polio + Hib")</java:condition>
		<java:condition>prev.getNumberOfPreventionType("DTaP-IPV-Hib") + prev.getNumberOfPreventionType("[[DTaP-IPV-Hib] Diphtheria + Tetanus + Pertussis + Polio + Hib") == 1</java:condition>
		<java:condition>prev.getHowManyMonthsSinceLast("DTaP-IPV-Hib") &gt;= 2 || prev.getHowManyMonthsSinceLast("[DTaP-IPV-Hib] Diphtheria + Tetanus + Pertussis + Polio + Hib") &gt;= 2</java:condition>
		<java:condition>!prev.isPreventionNever("DTaP-IPV-Hib") || !prev.isPreventionNever("[DTaP-IPV-Hib] Diphtheria + Tetanus + Pertussis + Polio + Hib")</java:condition>
		<java:consequence>              
              prev.log("DTaP-IPV 2");
              prev.addWarning("DTaP-IPV", "Needs 2nd DTaP-IPV-HIB");
        </java:consequence>
	</rule>
	<rule name="DTaP-IPV 3">
<parameter identifier="prev">
			<class>oscar.oscarPrevention.Prevention</class>
		</parameter>
		<java:condition>prev.getAgeInMonths() &gt;= 6</java:condition>
		<java:condition>prev.getAgeInMonths() &lt; 72</java:condition>
		<java:condition>prev.getNumberOfPreventionType("DTaP-IPV-Hib") + prev.getNumberOfPreventionType("[DTaP-IPV-Hib] Diphtheria + Tetanus + Pertussis + Polio + Hib") == 2</java:condition>
		<java:condition>prev.getHowManyMonthsSinceLast("DTaP-IPV-Hib") &gt;= 2 || prev.getHowManyMonthsSinceLast("[DTaP-IPV-Hib] Diphtheria + Tetanus + Pertussis + Polio + Hib") &gt;= 2</java:condition>
		<java:condition>!prev.isPreventionNever("DTaP-IPV-Hib") || !prev.isPreventionNever("[DTaP-IPV-Hib] Diphtheria + Tetanus + Pertussis + Polio + Hib")</java:condition>
		<java:consequence>              
              prev.log("DTaP-IPV 3");
              prev.addWarning("DTaP-IPV", "Needs 3rd DTaP-IPV-HIB");
        </java:consequence>
	</rule>
	<rule name="DTaP-IPV 3.1">
		<parameter identifier="prev">
			<class>oscar.oscarPrevention.Prevention</class>
		</parameter>
		<java:condition>prev.isPassedNextDate("DTaP-IPV-Hib") || prev.isPassedNextDate("[DTaP-IPV-Hib] Diphtheria + Tetanus + Pertussis + Polio + Hib")</java:condition>
		<java:condition>prev.getNumberOfPreventionType("DTaP-IPV-Hib") + prev.getNumberOfPreventionType("[DTaP-IPV-Hib] Diphtheria + Tetanus + Pertussis + Polio + Hib") == 2</java:condition>
		<java:condition>prev.getHowManyMonthsSinceLast("DTaP-IPV-Hib") &gt;= 2 || prev.getHowManyMonthsSinceLast("[DTaP-IPV-Hib] Diphtheria + Tetanus + Pertussis + Polio + Hib") &gt;= 2</java:condition>
		<java:condition>!prev.isPreventionNever("DTaP-IPV-Hib") || !prev.isPreventionNever("[DTaP-IPV-Hib] Diphtheria + Tetanus + Pertussis + Polio + Hib")</java:condition>
		<java:consequence>              
              prev.log("DTaP-IPV 2.1");
              prev.addWarning("DTaP-IPV", "Needs 3rd DTaP-IPV /HIB");
        </java:consequence>
	</rule>
	<rule name="DTaP-IPV 4">
		<parameter identifier="prev">
			<class>oscar.oscarPrevention.Prevention</class>
		</parameter>
		<java:condition>prev.getAgeInMonths() &gt;= 18</java:condition>
		<java:condition>prev.getAgeInMonths() &lt; 72</java:condition>
		<java:condition>prev.getNumberOfPreventionType("DTaP-IPV-Hib") + prev.getNumberOfPreventionType("[DTaP-IPV-Hib] Diphtheria + Tetanus + Pertussis + Polio + Hib") == 3</java:condition>
		<java:condition>prev.getHowManyMonthsSinceLast("DTaP-IPV-Hib") &gt;= 12 || prev.getHowManyMonthsSinceLast("[DTaP-IPV-Hib] Diphtheria + Tetanus + Pertussis + Polio + Hib") &gt;= 12</java:condition>
		<java:condition>!prev.isPreventionNever("DTaP-IPV-Hib") || !prev.isPreventionNever("[DTaP-IPV-Hib] Diphtheria + Tetanus + Pertussis + Polio + Hib")</java:condition>
		<java:consequence>              
              prev.log("DTaP-IPV 4");
              prev.addWarning("DTaP-IPV", "Needs 4th DTaP-IPV-HIB");
        </java:consequence>
	</rule>
	<rule name="DTaP-IPV 4.1">
		<parameter identifier="prev">
			<class>oscar.oscarPrevention.Prevention</class>
		</parameter>
		<java:condition>prev.isPassedNextDate("DTaP-IPV-Hib")</java:condition>
		<java:condition>prev.getNumberOfPreventionType("DTaP-IPV-Hib") + prev.getNumberOfPreventionType("[DTaP-IPV-Hib] Diphtheria + Tetanus + Pertussis + Polio + Hib") == 2</java:condition>
		<java:condition>prev.getHowManyMonthsSinceLast("DTaP-IPV-Hib") &gt;= 2 || prev.getHowManyMonthsSinceLast("[DTaP-IPV-Hib] Diphtheria + Tetanus + Pertussis + Polio + Hib") &gt;= 2</java:condition>
		<java:condition>!prev.isPreventionNever("DTaP-IPV-Hib") || !prev.isPreventionNever("[DTaP-IPV-Hib] Diphtheria + Tetanus + Pertussis + Polio + Hib")</java:condition>
		<java:consequence>              
              prev.log("DTaP-IPV 2.1");
              prev.addWarning("DTaP-IPV", "Needs 3rd DTaP-IPV-Hib");
        </java:consequence>
	</rule>
	<rule name="DTaP-IPV 5">
		<parameter identifier="prev">
			<class>oscar.oscarPrevention.Prevention</class>
		</parameter>
		<java:condition>prev.getAgeInMonths() &gt;= 12</java:condition>
		<java:condition>prev.getAgeInMonths() &lt; 60</java:condition>
		<java:condition>prev.getNumberOfPreventionType("DTaP-IPV-Hib") + prev.getNumberOfPreventionType("[DTaP-IPV-Hib] Diphtheria + Tetanus + Pertussis + Polio + Hib") + prev.getNumberOfPreventionType("[DTaP-IPV] Diphtheria + Tetanus + Pertussis + Polio") == 1</java:condition>
		<java:condition>prev.getHowManyMonthsSinceLast("DTaP-IPV") &gt;= 2 || prev.getHowManyMonthsSinceLast("[DTaP-IPV] Diphtheria + Tetanus + Pertussis + Polio") &gt;= 2</java:condition>
		<java:condition>!prev.isPreventionNever("DTaP-IPV-Hib") || !prev.isPreventionNever("[DTaP-IPV-Hib] Diphtheria + Tetanus + Pertussis + Polio + Hib")</java:condition>
		<java:consequence>              
              prev.log("DTaP-IPV 3");
              prev.addWarning("DTaP-IPV", "Needs 2nd DTaP-IPV-HIB");
        </java:consequence>
	</rule>
	<rule name="Rot 1">
		<parameter identifier="prev">
			<class>oscar.oscarPrevention.Prevention</class>
		</parameter>
		<java:condition>prev.getAgeInMonths() &gt;= 2</java:condition>
		<java:condition>prev.getAgeInMonths() &lt; 5</java:condition>
		<java:condition>prev.getNumberOfPreventionType("Rot") +	prev.getNumberOfPreventionType("[Rota-5] Rotavirus pentavalent") == 0</java:condition>
		<java:consequence>
             System.out.println("Rot 1");
             prev.addWarning("Rot", "Needs First Rota-5 vaccine");
       </java:consequence>
	</rule>
	<rule name="Rot 2">
		<parameter identifier="prev">
			<class>oscar.oscarPrevention.Prevention</class>
		</parameter>
		<java:condition>prev.getAgeInMonths() &gt;= 4</java:condition>
		<java:condition>prev.getAgeInMonths() &lt;= 6</java:condition>
		<java:condition>prev.getNumberOfPreventionType("Rot") +	prev.getNumberOfPreventionType("[Rota-5] Rotavirus pentavalent") == 1</java:condition>
		<java:condition>prev.getHowManyMonthsSinceLast("Rot") &gt;= 1 || prev.getHowManyMonthsSinceLast("[Rota-5] Rotavirus pentavalent") &gt;= 1</java:condition>
		<java:condition>!prev.isPreventionNever("Rot") || !prev.isPreventionNever("[Rota-5] Rotavirus pentavalent")</java:condition>
		<java:consequence>
             System.out.println("Rot 2");
             prev.addWarning("Rot", "Needs 2nd Rot-5 vaccine");
       </java:consequence>
	</rule>
	<rule name="Pneu-C 1">
		<parameter identifier="prev">
			<class>oscar.oscarPrevention.Prevention</class>
		</parameter>
		<java:condition>prev.getAgeInMonths() &gt;= 2</java:condition>
		<java:condition>prev.getAgeInMonths() &lt; 48</java:condition>
		<java:condition>prev.getNumberOfPreventionType("Pneu-C") + prev.getNumberOfPreventionType("[Pneu-C] Pneumococcal conjugate") + prev.getNumberOfPreventionType("[Pneu-C-13] Pneumococcal conjugate 13") == 0</java:condition>
		<java:consequence>              
              prev.log("Pneu-C 1");
              prev.addWarning("Pneu-C", "Needs 1st Pneu-C-13");
        </java:consequence>
	</rule>
	<rule name="Pneu-C 2">
		<parameter identifier="prev">
			<class>oscar.oscarPrevention.Prevention</class>
		</parameter>
		<java:condition>prev.getAgeInMonths() &gt;= 4</java:condition>
		<java:condition>prev.getAgeInMonths() &lt; 26</java:condition>
		<java:condition>prev.getNumberOfPreventionType("Pneu-C") + prev.getNumberOfPreventionType("[Pneu-C] Pneumococcal conjugate") + prev.getNumberOfPreventionType("[Pneu-C-13] Pneumococcal conjugate 13") == 1</java:condition>
		<java:condition>prev.getHowManyMonthsSinceLast("Pneu-C") &gt;= 2 || prev.getHowManyMonthsSinceLast("[Pneu-C] Pneumococcal conjugate") &gt;= 2 || prev.getHowManyMonthsSinceLast("[Pneu-C-13] Pneumococcal conjugate 13") &gt;= 2</java:condition>
		<java:consequence>              
              prev.log("Pneu-C 2");
              prev.addWarning("Pneu-C", "Needs 2nd Pneu-C-13");
        </java:consequence>
	</rule>
	<rule name="Pneu-C 3">
		<parameter identifier="prev">
			<class>oscar.oscarPrevention.Prevention</class>
		</parameter>
		<java:condition>prev.getAgeInMonths() &gt;= 12</java:condition>
		<java:condition>prev.getAgeInMonths() &lt; 24</java:condition>
		<java:condition>prev.getNumberOfPreventionType("Pneu-C") + prev.getNumberOfPreventionType("[Pneu-C] Pneumococcal conjugate") + prev.getNumberOfPreventionType("[Pneu-C-13] Pneumococcal conjugate 13") == 2</java:condition>
		<java:condition>prev.getHowManyMonthsSinceLast("Pneu-C") &gt;= 2 || prev.getHowManyMonthsSinceLast("[Pneu-C-13] Pneumococcal conjugate 13") &gt;= 2</java:condition>
		<java:consequence>              
              prev.log("Pneu-C 3");
              prev.addWarning("Pneu-C", "Needs 3rd Pneu-C-13");
        </java:consequence>
	</rule>
	<rule name="MMR 1">
		<parameter identifier="prev">
			<class>oscar.oscarPrevention.Prevention</class>
		</parameter>
		<java:condition>prev.getAgeInMonths() &gt;= 12</java:condition>
		<java:condition>prev.getAgeInYears() &lt; 4</java:condition>
		<java:condition>prev.getNumberOfPreventionType("MMR") + prev.getNumberOfPreventionType("[MMR] Measles + Mumps + Rubella") + prev.getNumberOfPreventionType("[MMR-Var] Measles + Mumps + Rubella + Varicella") + prev.getNumberOfPreventionType("MMRV") == 0</java:condition>
		<java:consequence>       
              prev.log("MMR 1");
              prev.addWarning("MMR", "Needs First MMR");
        </java:consequence>
	</rule>
	<rule name="MMR 2">
		<parameter identifier="prev">
			<class>oscar.oscarPrevention.Prevention</class>
		</parameter>
		<java:condition>prev.getAgeInMonths() &gt;= 48</java:condition>
		<java:condition>prev.getAgeInYears() &lt; 6</java:condition>
		<java:condition>prev.getNumberOfPreventionType("MMR") + prev.getNumberOfPreventionType("[MMR] Measles + Mumps + Rubella") + prev.getNumberOfPreventionType("[MMR-Var] Measles + Mumps + Rubella + Varicella") + prev.getNumberOfPreventionType("MMRV") == 0</java:condition>
		<java:consequence>              
              prev.log("MMR 2");
              prev.addWarning("MMR", "Needs 1st MMRV");
        </java:consequence>
	</rule>
	<rule name="MMR 3">
		<parameter identifier="prev">
			<class>oscar.oscarPrevention.Prevention</class>
		</parameter>
		<java:condition>prev.getAgeInMonths() &gt;= 48</java:condition>
		<java:condition>prev.getAgeInYears() &lt; 6</java:condition>
		<java:condition>prev.getNumberOfPreventionType("MMR") + prev.getNumberOfPreventionType("[MMR] Measles + Mumps + Rubella") == 1</java:condition>
		<java:condition>prev.getNumberOfPreventionType("[MMR-Var] Measles + Mumps + Rubella + Varicella") + prev.getNumberOfPreventionType("MMRV") == 0</java:condition>
		<java:consequence>              
              prev.log("MMR 3");
              prev.addWarning("MMR", "Needs 1st MMRV");
        </java:consequence>
	</rule>

	<rule name="MenC-C 1">
		<parameter identifier="prev">
			<class>oscar.oscarPrevention.Prevention</class>
		</parameter>
		<java:condition>prev.getAgeInMonths() &gt;= 12</java:condition>
		<java:condition>prev.getAgeInYears() &lt; 2</java:condition>
		<java:condition>prev.getNumberOfPreventionType("MenC-C") + prev.getNumberOfPreventionType("[Men-C-C] Meningococcal conjugate C") == 0</java:condition>
		<java:consequence>              
              prev.log("Pneu-C 4");
              prev.addWarning("MenC-C", "Needs MenC-C");
        </java:consequence>
	</rule>
	<rule name="MenC-C 2">
		<parameter identifier="prev">
			<class>oscar.oscarPrevention.Prevention</class>
		</parameter>
		<java:condition>prev.getAgeInYears() &gt;= 12</java:condition>
		<java:condition>prev.getAgeInYears() &lt; 19</java:condition>
		<java:condition>prev.getNumberOfPreventionType("[Men-ACYW-135] Meningococcal A+C+Y+W135") + prev.getNumberOfPreventionType("Men-C-ACYW-135") == 0</java:condition>
		<java:consequence>              
              prev.log("MenC-C 2");
              prev.addWarning("MenC-C", "Needs Men-ACYW-135");
        </java:consequence>
	</rule>
	<rule name="HPV 1">
		<parameter identifier="prev">
			<class>oscar.oscarPrevention.Prevention</class>
		</parameter>
		<java:condition>prev.getAgeInYears() &gt;= 12</java:condition>
		<java:condition>prev.getAgeInYears() &lt; 19</java:condition>
		<java:condition>prev.getNumberOfPreventionType("[HPV-9] Human Papillomavirus") + prev.getNumberOfPreventionType("[HPV-4] Human Papillomavirus")  + prev.getNumberOfPreventionType("HPV Vaccine") == 0</java:condition>
		<java:consequence>              
              prev.log("HPV 1");
              prev.addWarning("HPV", "Needs HPV");
        </java:consequence>
	</rule>
	<rule name="HB 1">
		<parameter identifier="prev">
			<class>oscar.oscarPrevention.Prevention</class>
		</parameter>
		<java:condition>prev.getAgeInYears() &gt;= 12</java:condition>
		<java:condition>prev.getAgeInYears() &lt; 19</java:condition>
		<java:condition>prev.getNumberOfPreventionType("[HB] Hepatitis B") + prev.getNumberOfPreventionType("HepB") + prev.getNumberOfPreventionType("HepAB") == 0</java:condition>
		<java:consequence>              
              prev.log("HB 1");
              prev.addWarning("HB", "Needs HB");
        </java:consequence>
	</rule> 

	<rule name="VZ 1">
		<parameter identifier="prev">
			<class>oscar.oscarPrevention.Prevention</class>
		</parameter>
		<java:condition>prev.getAgeInMonths() &gt;= 15</java:condition>
		<java:condition>prev.getAgeInMonths() &lt;= 24 </java:condition>
		<java:condition>prev.getNumberOfPreventionType("VZ") + prev.getNumberOfPreventionType("[Var] Varicella") == 0</java:condition>
		<java:condition>prev.getHowManyDaysSinceLast("MMR") &gt;= 28 || prev.getHowManyDaysSinceLast("[MMR] Measles + Mumps + Rubella") &gt;= 28</java:condition>
		<java:consequence>              
              prev.log("VZ 1");
              prev.addWarning("VZ", "Needs Var");
        </java:consequence>
	</rule>
	<rule name="VZ 2">
		<parameter identifier="prev">
			<class>oscar.oscarPrevention.Prevention</class>
		</parameter>
		<java:condition>prev.getAgeInMonths() &gt;= 15</java:condition>
		<java:condition>prev.getAgeInMonths() &lt;= 36 </java:condition>
		<java:condition>prev.getNumberOfPreventionType("VZ") + prev.getNumberOfPreventionType("[Var] Varicella") == 0</java:condition>
		<java:consequence>              
              prev.log("VZ 2");
              prev.addWarning("VZ", "Needs Var");
        </java:consequence>
	</rule>
	<rule name="VZ 3">
		<parameter identifier="prev">
			<class>oscar.oscarPrevention.Prevention</class>
		</parameter>
		<java:condition>prev.getAgeInYears() &gt;= 4</java:condition>
		<java:condition>prev.getAgeInYears() &lt;= 6 </java:condition>
		<java:condition>prev.getNumberOfPreventionType("VZ") + prev.getNumberOfPreventionType("[Var] Varicella") + prev.getNumberOfPreventionType("MMRV") + prev.getNumberOfPreventionType("[MMR-Var] Measles + Mumps + Rubella + Varicella") == 0</java:condition>
		<java:consequence>              
              prev.log("VZ 3");
              prev.addWarning("VZ", "Needs Var or MMR-Var");
        </java:consequence>
	</rule>
	<rule name="VZ 4">
		<parameter identifier="prev">
			<class>oscar.oscarPrevention.Prevention</class>
		</parameter>
		<java:condition>prev.getAgeInYears() &gt;= 4</java:condition>
		<java:condition>prev.getAgeInYears() &lt;= 6 </java:condition>
		<java:condition>prev.getNumberOfPreventionType("VZ") + prev.getNumberOfPreventionType("[Var] Varicella") + prev.getNumberOfPreventionType("MMRV") + prev.getNumberOfPreventionType("[MMR-Var] Measles + Mumps + Rubella + Varicella") == 1</java:condition>
		<java:consequence>              
              prev.log("VZ 4");
              prev.addWarning("VZ", "Needs MMR-Var");
        </java:consequence>
	</rule>
	<rule name="dTap 1">
		<parameter identifier="prev">
			<class>oscar.oscarPrevention.Prevention</class>
		</parameter>
		<java:condition>prev.getAgeInYears() &gt;= 14</java:condition>
		<java:condition>prev.getNumberOfPreventionType("dTap") + prev.getNumberOfPreventionType("[Tdap] Tetanus + Diphtheria + Pertussis") == 0</java:condition>
		<java:consequence>              
              prev.log("dTap 1");
              prev.addWarning("dTap", "Needs Tdap");
        </java:consequence>
	</rule>
	<rule name="Td 1">
		<parameter identifier="prev">
			<class>oscar.oscarPrevention.Prevention</class>
		</parameter>
		<java:condition>prev.getAgeInYears() &gt;= 14</java:condition>
		<java:condition>prev.getNumberOfPreventionType("Td") + prev.getNumberOfPreventionType("[Td] Tetanus + Diphtheria") == 0</java:condition>
		<java:condition>prev.getNumberOfPreventionType("dTap") + prev.getNumberOfPreventionType("[Tdap] Tetanus + Diphtheria + Pertussis") &gt;= 1</java:condition>
		<java:condition>prev.getHowManyMonthsSinceLast("dTaP") &gt;= 120 || prev.getHowManyMonthsSinceLast("[Tdap] Tetanus + Diphtheria + Pertussis") &gt;= 120</java:condition>
		<java:consequence>              
              prev.log("Td 1");
              prev.addWarning("Td", "Needs first Td");
        </java:consequence>
	</rule>
	<rule name="Td 2">
		<parameter identifier="prev">
			<class>oscar.oscarPrevention.Prevention</class>
		</parameter>
		<java:condition>prev.getAgeInYears() &gt;= 14</java:condition>
		<java:condition>prev.getNumberOfPreventionType("Td") + prev.getNumberOfPreventionType("[Td] Tetanus + Diphtheria") &gt;= 1</java:condition>
		<java:condition>prev.getHowManyMonthsSinceLast("Td") &gt;= 120 || prev.getHowManyMonthsSinceLast("[Td] Tetanus + Diphtheria") &gt;= 120</java:condition>
		<java:consequence>              
              prev.log("Td 2");
              prev.addWarning("Td", "Needs repeat Td");
        </java:consequence>
	</rule>
	<rule name="Flu 2">
		<parameter identifier="prev">
			<class>oscar.oscarPrevention.Prevention</class>
		</parameter>
		<java:condition>prev.getAgeInYears() &gt;=65</java:condition>
		<java:condition>prev.getHowManyMonthsSinceLast("Flu") &gt;= 12 || prev.getHowManyMonthsSinceLast("[Inf] Influenza trivalent high-dose") &gt;= 12 ||prev.getHowManyMonthsSinceLast("[Inf] Influenza quadrivalent") &gt;= 12 || prev.getHowManyMonthsSinceLast("[Inf] Influenza") &gt;= 12</java:condition>
		<java:consequence>              
              prev.log("Flu 2");
              prev.addWarning("Flu", "Needs Influenza Shot ");
        </java:consequence>
	</rule>
	<rule name="Flu 3">
		<parameter identifier="prev">
			<class>oscar.oscarPrevention.Prevention</class>
		</parameter>
		<java:condition>prev.getAgeInYears() &gt;=65</java:condition>
		<java:condition>prev.getNumberOfPreventionType("Flu") == 0</java:condition>
		<java:condition>prev.getNumberOfPreventionType("[Inf] Influenza trivalent high-dose") == 0</java:condition>
		<java:condition>prev.getNumberOfPreventionType("[Inf] Influenza quadrivalent") == 0</java:condition>
		<java:condition>prev.getNumberOfPreventionType("[Inf] Influenza") == 0</java:condition>
		<java:consequence>              
              prev.log("Flu 3");
              prev.addWarning("Flu", "Needs Influenza Shot ");
        </java:consequence>
	</rule>
	<rule name="PAP 1">
		<parameter identifier="prev">
			<class>oscar.oscarPrevention.Prevention</class>
		</parameter>
		<java:condition>prev.getAgeInYears() &gt;= 25</java:condition>
		<java:condition>prev.getAgeInYears() &lt; 70</java:condition>
		<java:condition>prev.isFemale()</java:condition>
		<java:condition>prev.getHowManyMonthsSinceLast("PAP") &gt;= 34</java:condition>
		<java:condition>prev.getHowManyMonthsSinceLast("PAP") &lt;= 36</java:condition>
		<java:condition>!prev.isPreventionNever("PAP")</java:condition>
		<java:condition>!prev.isNextDateSet("PAP")</java:condition>
		<java:condition>!prev.isInelligible("PAP")</java:condition>
		<java:consequence>              
              prev.log("PAP 1");
              prev.addReminder("PAP is coming due for this patient");
        </java:consequence>
	</rule>
	<rule name="PAP 2">
		<parameter identifier="prev">
			<class>oscar.oscarPrevention.Prevention</class>
		</parameter>
		<java:condition>prev.getAgeInYears() &gt;= 25</java:condition>
		<java:condition>prev.getAgeInYears() &lt; 70</java:condition>
		<java:condition>prev.isFemale()</java:condition>
		<java:condition>prev.getHowManyMonthsSinceLast("PAP") &gt; 36</java:condition>
		<java:condition>!prev.isPreventionNever("PAP")</java:condition>
		<java:condition>!prev.isNextDateSet("PAP")</java:condition>
		<java:condition>!prev.isInelligible("PAP")</java:condition>
		<java:consequence>              
              prev.log("PAP 2");
              prev.addWarning("PAP", "PAP is overdue for this patient");
        </java:consequence>
	</rule>
	<rule name="PAP 3">
		<parameter identifier="prev">
			<class>oscar.oscarPrevention.Prevention</class>
		</parameter>
		<java:condition>prev.getAgeInYears() &gt;= 25</java:condition>
		<java:condition>prev.getAgeInYears() &lt; 70</java:condition>
		<java:condition>prev.isFemale()</java:condition>
		<java:condition>prev.getHowManyMonthsSinceLast("PAP") == -1</java:condition>
		<java:condition>!prev.isInelligible("PAP")</java:condition>
		<java:consequence>              
              prev.log("PAP 3");
              prev.addWarning("PAP", "No PAP records can be found for this patient");
        </java:consequence>
	</rule>
	<rule name="PAP 4">
		<parameter identifier="prev">
			<class>oscar.oscarPrevention.Prevention</class>
		</parameter>
		<java:condition>prev.isFemale()</java:condition>
		<java:condition>prev.isNextDateSet("PAP")</java:condition>
		<java:condition>prev.isPassedNextDate("PAP")</java:condition>
		<java:condition>!prev.isInelligible("PAP")</java:condition>
		<java:consequence>              
              prev.log("PAP 4");
              prev.addWarning("PAP", "PAP is overdue for this patient");
        </java:consequence>
	</rule>
	<rule name="PAP debug">
		<parameter identifier="prev">
			<class>oscar.oscarPrevention.Prevention</class>
		</parameter>
		<java:condition>prev.getAgeInYears() &gt;= 25</java:condition>
		<java:condition>prev.getAgeInYears() &lt; 70</java:condition>
		<java:condition>prev.isFemale()</java:condition>
		<java:condition>prev.getHowManyMonthsSinceLast("PAP") != -1</java:condition>
		<java:condition>!prev.isInelligible("PAP")</java:condition>
		<java:consequence>              
              prev.log("PAP debug");
              prev.addReminder("Last PAP was done "+prev.getHowManyMonthsSinceLast("PAP")+" month(s) ago");
        </java:consequence>
	</rule>
	<!-- Mammogram Rules Start -->
	<rule name="MAM 1">
		<parameter identifier="prev">
			<class>oscar.oscarPrevention.Prevention</class>
		</parameter>
		<java:condition>prev.getAgeInYears() &gt;= 50</java:condition>
		<java:condition>prev.getAgeInYears() &lt; 70</java:condition>
		<java:condition>prev.isFemale()</java:condition>
		<java:condition>prev.getHowManyMonthsSinceLast("MAM") &gt;= 22</java:condition>
		<java:condition>prev.getHowManyMonthsSinceLast("MAM") &lt;= 24</java:condition>
		<java:condition>!prev.isPreventionNever("MAM")</java:condition>
		<java:condition>!prev.isNextDateSet("MAM")</java:condition>
		<java:condition>!prev.isInelligible("MAM")</java:condition>
		<java:consequence>              
              prev.log("MAM 1");
              prev.addReminder("Mammogram is coming due for this patient");
        </java:consequence>
	</rule>
	<rule name="MAM 2">
		<parameter identifier="prev">
			<class>oscar.oscarPrevention.Prevention</class>
		</parameter>
		<java:condition>prev.getAgeInYears() &gt;= 50</java:condition>
		<java:condition>prev.getAgeInYears() &lt; 70</java:condition>
		<java:condition>prev.isFemale()</java:condition>
		<java:condition>prev.getHowManyMonthsSinceLast("MAM") &gt; 24</java:condition>
		<java:condition>!prev.isPreventionNever("MAM")</java:condition>
		<java:condition>!prev.isNextDateSet("MAM")</java:condition>
		<java:condition>!prev.isInelligible("MAM")</java:condition>
		<java:consequence>              
              prev.log("MAM 2");
              prev.addWarning("MAM", "Mammogram is overdue for this patient");
        </java:consequence>
	</rule>
	<rule name="MAM 3">
		<parameter identifier="prev">
			<class>oscar.oscarPrevention.Prevention</class>
		</parameter>
		<java:condition>prev.getAgeInYears() &gt;= 50</java:condition>
		<java:condition>prev.getAgeInYears() &lt; 70</java:condition>
		<java:condition>prev.isFemale()</java:condition>
		<java:condition>prev.getHowManyMonthsSinceLast("MAM") == -1</java:condition>
		<java:condition>!prev.isInelligible("MAM")</java:condition>
		<java:consequence>              
              prev.log("MAM 3");
              prev.addWarning("MAM", "No Mammogram records can be found for this patient");
        </java:consequence>
	</rule>
	<rule name="MAM 4">
		<parameter identifier="prev">
			<class>oscar.oscarPrevention.Prevention</class>
		</parameter>
		<java:condition>prev.isFemale()</java:condition>
		<java:condition>prev.isNextDateSet("MAM")</java:condition>
		<java:condition>prev.isPassedNextDate("MAM")</java:condition>
		<java:condition>!prev.isInelligible("MAM")</java:condition>
		<java:consequence>              
              prev.log("MAM 4");
              prev.addWarning("MAM", "MAM is overdue for this patient");
        </java:consequence>
	</rule>
	<rule name="MAM debug">
		<parameter identifier="prev">
			<class>oscar.oscarPrevention.Prevention</class>
		</parameter>
		<java:condition>prev.getAgeInYears() &gt;= 18</java:condition>
		<java:condition>prev.getAgeInYears() &lt; 70</java:condition>
		<java:condition>prev.isFemale()</java:condition>
		<java:condition>prev.getHowManyMonthsSinceLast("MAM") != -1</java:condition>
		<java:condition>!prev.isInelligible("MAM")</java:condition>
		<java:consequence>              
              prev.log("MAM debug");
              prev.addReminder("Last Mammogram was done "+prev.getHowManyMonthsSinceLast("MAM")+" month(s) ago");
        </java:consequence>
	</rule>
	<!-- Mammogram Rules End -->
	<!-- FOBT Rules -->
	<rule name="FOBT 1">
		<parameter identifier="prev">
			<class>oscar.oscarPrevention.Prevention</class>
		</parameter>
		<java:condition>prev.getAgeInYears() &gt;= 50</java:condition>
		<java:condition>prev.getAgeInYears() &lt;= 74</java:condition>
		<java:condition>prev.getHowManyMonthsSinceLast("COLONOSCOPY") == -1</java:condition>
		<java:condition>prev.getHowManyMonthsSinceLast("FOBT") &gt;= 24</java:condition>
		<java:consequence>
              prev.log("FOBT 1 debug");
              prev.addWarning("FOBT", "FIT is overdue for this patient");
        </java:consequence>
	</rule>
	<rule name="FOBT 2">
		<parameter identifier="prev">
			<class>oscar.oscarPrevention.Prevention</class>
		</parameter>
		<java:condition>prev.getAgeInYears() &gt;= 50</java:condition>
		<java:condition>prev.getAgeInYears() &lt;= 74</java:condition>
		<java:condition>prev.getHowManyMonthsSinceLast("COLONOSCOPY") == -1</java:condition>
		<java:condition>prev.getHowManyMonthsSinceLast("FOBT") == -1</java:condition>
		<java:consequence>
              prev.log("FOBT 2 debug");
              prev.addWarning("FOBT", "FIT is overdue for this patient");
        </java:consequence>
	</rule>
	<rule name="FOBT 3">
		<parameter identifier="prev">
			<class>oscar.oscarPrevention.Prevention</class>
		</parameter>
		<java:condition>prev.getAgeInYears() &gt;= 50</java:condition>
		<java:condition>prev.getAgeInYears() &lt;= 74</java:condition>
		<java:condition>prev.getHowManyMonthsSinceLast("COLONOSCOPY") &gt;= 120</java:condition>
		<java:consequence>
              prev.log("FOBT 3 debug");
              prev.addWarning("FOBT", "Colonoscopy is over 10 years old");
        </java:consequence>
	</rule>
	<rule name="FOBT Inelligible">
		<parameter identifier="prev">
			<class>oscar.oscarPrevention.Prevention</class>
		</parameter>
		<java:condition>prev.getHowManyMonthsSinceLast("COLONOSCOPY") != -1</java:condition>
		<java:consequence>
              prev.log("FOBT Inelligible debug");
              prev.addReminder("Colonoscopy makes FIT Inelligible");
        </java:consequence>
	</rule>
	<!-- FOBT Rules End-->
	<rule name="Smoking">
		<parameter identifier="prev">
			<class>oscar.oscarPrevention.Prevention</class>
		</parameter>
		<java:condition>prev.getAgeInYears() &gt;= 13</java:condition>
		<java:condition>prev.getHowManyMonthsSinceLast("Smoking") == -1</java:condition>
		<java:consequence>
              prev.log("Smoking debug");
              prev.addReminder("Need to ask about Smoking");
        </java:consequence>
	</rule>
	<rule name="Bone Mineral Density">
		<parameter identifier="prev">
			<class>oscar.oscarPrevention.Prevention</class>
		</parameter>
		<java:condition>prev.getAgeInYears() &gt;= 65</java:condition>
		<java:condition>prev.getHowManyMonthsSinceLast("BMD") == -1</java:condition>
		<java:consequence>
              prev.log("BMD debug");
              prev.addReminder("Need Bone Mineral Density Test");
        </java:consequence>
	</rule>
	<rule name="PHV">
		<parameter identifier="prev">
			<class>oscar.oscarPrevention.Prevention</class>
		</parameter>
		<java:condition>prev.getAgeInYears() &gt;= 18</java:condition>
		<java:condition>prev.getHowManyMonthsSinceLast("PHV") == -1</java:condition>
		<java:consequence>
              prev.log("PHV debug");
              prev.addWarning("PHV", "Periodic Health Visit has never been reviewed");
        </java:consequence>
	</rule>
	<rule name="PHV 2">
		<parameter identifier="prev">
			<class>oscar.oscarPrevention.Prevention</class>
		</parameter>
		<java:condition>prev.getAgeInYears() &gt;= 18</java:condition>
		<java:condition>prev.getHowManyMonthsSinceLast("PHV") &gt; 23</java:condition>
		<java:consequence>
              prev.log("PHV debug");
              prev.addWarning("PHV", "Periodic Health Visit has not occurred in over two years");
        </java:consequence>
	</rule>
	<!--
	<rule name="Annual Physical">
		<parameter identifier="prev">
			<class>oscar.oscarPrevention.Prevention</class>
		</parameter>
		<java:condition>prev.getHowManyMonthsSinceLast("Annual Physical") == -1</java:condition>
		<java:consequence>
              prev.log("Annual Physical debug");
              prev.addWarning("Annual Physical", "Annual Physical has never been reviewed");
        </java:consequence>
	</rule>
	<rule name="Annual Physical 2">
		<parameter identifier="prev">
			<class>oscar.oscarPrevention.Prevention</class>
		</parameter>
		<java:condition>prev.getHowManyMonthsSinceLast("Annual Physical") &gt; 11</java:condition>
		<java:consequence>
              prev.log("Annual Physical 2 debug");
              prev.addWarning("Annual Physical", "Annual Physical has not occurred in over 12 months");
        </java:consequence>
	</rule>
	<rule name="Obesity">
		<parameter identifier="prev">
			<class>oscar.oscarPrevention.Prevention</class>
		</parameter>
		<java:condition>prev.getHowManyMonthsSinceLast("Obesity") == -1</java:condition>
		<java:consequence>
              prev.log("Obesity debug");
              prev.addWarning("Obesity", "Obesity has never been reviewed");
        </java:consequence>
	</rule>
	<rule name="Obesity 2">
		<parameter identifier="prev">
			<class>oscar.oscarPrevention.Prevention</class>
		</parameter>
		<java:condition>prev.getHowManyMonthsSinceLast("Obesity") &gt; 11</java:condition>
		<java:consequence>
              prev.log("Obesity 2 debug");
              prev.addWarning("Obesity", "Obesity check has not occurred in over 12 months");
        </java:consequence>
	</rule>
	-->
</rule-set>
<!--

    <vaccine key="DTaP-IPV">                      the key would match the prevention type stored in the database     
    <routine ageBetween="0m-12m"><warning age="2m"  grace="0"/>           warning is probably not the best word  but the idea is that at each element there would be a warning on the top of the screen in the prevention module
     <warning age="4m"  grace="0"/><warning age="6m"  grace="0"/><warning age="18m"  grace="0"/><warning ageBetween="4y-6y"  grace="2m"/></routine><routine ageBetween="12m-7y" ><warning age="asap" grace="0"/><warning age="+2m" grace="0"/><warning age="+2m"  grace="0"/><warning age="+12m"  grace="0"/><warning age="4y-6y"  grace="2m"/></routine>    

-->